<?xml version="1.0" encoding="UTF-8" standalone="no"?>
<!-- Created with Inkscape (http://www.inkscape.org/) -->

<svg
   version="1.1"
   id="svg67"
   width="219.84752"
   height="207.91582"
   viewBox="0 0 219.84752 207.91582"
   sodipodi:docname="logonegro.png.svg"
   inkscape:version="1.1.2 (0a00cf5339, 2022-02-04)"
   xmlns:inkscape="http://www.inkscape.org/namespaces/inkscape"
   xmlns:sodipodi="http://sodipodi.sourceforge.net/DTD/sodipodi-0.dtd"
   xmlns="http://www.w3.org/2000/svg"
   xmlns:svg="http://www.w3.org/2000/svg">
  <defs
     id="defs71" />
  <sodipodi:namedview
     id="namedview69"
     pagecolor="#ffffff"
     bordercolor="#666666"
     borderopacity="1.0"
     inkscape:pageshadow="2"
     inkscape:pageopacity="0.0"
     inkscape:pagecheckerboard="0"
     showgrid="false"
     inkscape:zoom="2.2844988"
     inkscape:cx="14.882914"
     inkscape:cy="119.93878"
     inkscape:window-width="1850"
     inkscape:window-height="881"
     inkscape:window-x="0"
     inkscape:window-y="0"
     inkscape:window-maximized="1"
     inkscape:current-layer="g73" />
  <g
     inkscape:groupmode="layer"
     inkscape:label="Image"
     id="g73"
     transform="translate(2.0509491,-9.1906791)">
    <path
       style="fill:#0000ff;fill-opacity:1"
       d="m 82.573314,216.53649 c -3.263323,-0.91831 -1.993643,-3.34581 1.75,-3.34581 4.14886,0 4.37492,-1.1715 1,-5.18237 -2.70311,-3.21246 -3.04188,-4.9366 -1.52638,-7.76834 1.81384,-3.38919 10.02638,-3.78391 10.02638,-0.4819 0,0.91873 -1.05493,1.43261 -2.94098,1.43261 -4.15718,0 -4.44146,1.25941 -1.02346,4.53407 3.15924,3.02674 3.74746,6.03275 1.71444,8.76133 -1.32855,1.78308 -6.09282,2.86849 -9,2.05041 z m 15.34511,-0.26587 c -1.47204,-0.93194 -1.6655,-4.74435 -0.56985,-11.22949 0.42345,-2.50635 0.27077,-3.85045 -0.43737,-3.85045 -1.63794,0 -1.3067,-2.70206 0.41211,-3.36163 0.825,-0.31658 1.5,-1.48972 1.5,-2.60699 0,-1.46833 0.65451,-2.03138 2.361326,-2.03138 1.97952,0 2.28405,0.40423 1.88342,2.5 -0.38801,2.02976 -0.0798,2.5 1.63867,2.5 1.21474,0 2.11658,0.63913 2.11658,1.5 0,0.825 -0.87344,1.5 -1.94098,1.5 -2.42549,0 -2.64374,0.39393 -3.50408,6.32467 -0.63019,4.34427 -0.49352,4.87863 1.37259,5.36663 2.75051,0.71927 2.64419,2.92222 -0.17753,3.67841 -2.886326,0.77351 -2.985116,0.76736 -4.654886,-0.28977 z m 47.938676,-0.35737 c -5.53763,-2.80214 -4.83855,-16.18473 1.10678,-21.1874 3.06612,-2.57997 8.04569,-3.33666 10.73755,-1.63166 2.194,1.38966 0.31211,3.09649 -3.41408,3.09649 -4.05046,0 -6.03317,2.43369 -7.02,8.61674 -0.95195,5.96451 0.76421,8.6945 5.14418,8.18317 2.68838,-0.31386 3.41178,-0.0416 3.41178,1.28426 0,2.79155 -5.80228,3.74542 -9.96621,1.6384 z m -106.044219,-11.47257 1.58006,-11.75 6.29811,-0.29987 c 5.61033,-0.26712 6.26085,-0.10331 5.95687,1.5 -0.24026,1.26724 -1.41819,1.88991 -3.98048,2.10413 -2.76273,0.23098 -3.78105,0.8331 -4.22803,2.5 -1.0635,3.96606 -0.69306,4.69574 2.3839,4.69574 2.33333,0 3,0.44444 3,2 0,1.61905 -0.66667,2 -3.5,2 -2.95892,0 -3.50211,0.34784 -3.51365,2.25 -0.0272,4.49076 -1.16465,6.75 -3.39823,6.75 h -2.17862 z m 16.32621,9.5 c 0.29293,-1.2375 0.84414,-5.2875 1.22491,-9 0.65184,-6.35545 0.83893,-6.75 3.20081,-6.75 2.20285,0 2.44167,0.33507 1.95999,2.75 -0.30168,1.5125 -0.86606,5.5625 -1.25417,9 -0.65443,5.79629 -0.88563,6.25 -3.18489,6.25 -2.06221,0 -2.38966,-0.37847 -1.94665,-2.25 z m 10.83025,-3.5 c 1.75326,-11.95511 1.84713,-12.25 3.89928,-12.25 1.07508,0 1.95469,0.51974 1.95469,1.15499 0,0.69104 0.73458,0.4902 1.82874,-0.5 2.40011,-2.17207 3.17126,-2.08818 3.17126,0.34501 0,1.1 -0.64286,2 -1.42857,2 -2.69455,0 -4.29909,2.87616 -4.98456,8.9349 -0.61799,5.46235 -0.91465,6.0651 -2.98514,6.0651 -2.22983,0 -2.2736,-0.17289 -1.4557,-5.75 z m 55.403219,2 c 0.31508,-2.0625 1.11533,-7.35 1.77833,-11.75 l 1.20545,-8 5.12414,0.0368 c 6.97703,0.0501 8.69704,1.62825 8.04824,7.3844 -0.5823,5.16622 -3.36164,8.0788 -7.70921,8.0788 -2.93568,0 -3.9962,1.48131 -3.9962,5.58179 0,1.91579 -0.52187,2.41821 -2.51182,2.41821 -2.33772,0 -2.47211,-0.25991 -1.93893,-3.75 z m 10.40056,-8.68953 c 1.97424,-2.37881 0.90762,-7.00971 -1.69981,-7.38002 -1.90259,-0.27021 -2.25,0.14178 -2.25,2.66821 0,1.64327 -0.27314,3.69957 -0.60699,4.56955 -0.78945,2.05727 2.8726,2.1716 4.5568,0.14226 z m 29.05774,10.18953 c 0.007,-2.02738 1.06306,-9.72995 2.5369,-18.5 0.50685,-3.01601 0.82621,-3.25 4.43576,-3.25 6.19627,0 9.01979,1.48778 9.01979,4.75274 0,1.54124 -0.63004,3.70175 -1.40009,4.80115 -1.19107,1.7005 -1.19428,2.28035 -0.0215,3.88419 1.72244,2.35557 0.88352,6.47463 -1.79469,8.81192 -1.37747,1.20213 -3.69246,1.75 -7.39447,1.75 -4.92439,0 -5.38857,-0.19407 -5.38167,-2.25 z m 9.95258,-2.20196 c 1.90433,-2.29458 0.8371,-5.0115 -2.10283,-5.35328 -2.33698,-0.27169 -2.67121,0.0855 -3.04064,3.25 -0.3633,3.11192 -0.14363,3.55524 1.7617,3.55524 1.19721,0 2.71901,-0.65338 3.38177,-1.45196 z m 1.08169,-10.62618 c 1.42722,-2.66679 0.55511,-4.92186 -1.90345,-4.92186 -2.01014,0 -3.13837,1.82687 -3.13837,5.08179 0,2.62593 3.61219,2.51135 5.04182,-0.15993 z M 58.823311,192.89068 c 0,-1.67231 2.02769,-3.7 3.7,-3.7 0.72,0 1.3,1.11538 1.3,2.5 0,2 -0.5,2.5 -2.5,2.5 -1.38461,0 -2.5,-0.58 -2.5,-1.3 z m -20.61047,-7.12727 c -0.93247,-2.42998 0.0336,-6.07273 1.61047,-6.07273 1.01149,0 1.60108,1.22127 1.81037,3.75 0.23941,2.89272 -0.0535,3.75 -1.28139,3.75 -0.87546,0 -1.83821,-0.64227 -2.13945,-1.42727 z m 10.02433,0.0634 c -0.85622,-2.23128 -0.0844,-5.9233 1.33614,-6.39112 0.84142,-0.2771 1.25,0.74032 1.25,3.11266 0,3.73076 -1.62304,5.78828 -2.58614,3.27846 z m 8.97567,-0.0634 c -0.93247,-2.42998 0.0336,-6.07273 1.61047,-6.07273 1.01149,0 1.60108,1.22127 1.81037,3.75 0.23941,2.89272 -0.0535,3.75 -1.28139,3.75 -0.87546,0 -1.83821,-0.64227 -2.13945,-1.42727 z m 10,0 c -0.93247,-2.42998 0.0336,-6.07273 1.61047,-6.07273 1.01149,0 1.60108,1.22127 1.81037,3.75 0.23941,2.89272 -0.0535,3.75 -1.28139,3.75 -0.87546,0 -1.83821,-0.64227 -2.13945,-1.42727 z m 10,0 c -0.93247,-2.42998 0.0336,-6.07273 1.61047,-6.07273 1.01149,0 1.60108,1.22127 1.81037,3.75 0.23941,2.89272 -0.0535,3.75 -1.28139,3.75 -0.87546,0 -1.83821,-0.64227 -2.13945,-1.42727 z m 9.000003,0 c -0.93247,-2.42998 0.0336,-6.07273 1.61047,-6.07273 1.01149,0 1.60108,1.22127 1.81037,3.75 0.23941,2.89272 -0.0535,3.75 -1.28139,3.75 -0.87546,0 -1.83821,-0.64227 -2.13945,-1.42727 z m 10,0 c -0.93247,-2.42998 0.0336,-6.07273 1.61047,-6.07273 1.01149,0 1.60108,1.22127 1.81037,3.75 0.23941,2.89272 -0.0535,3.75 -1.28139,3.75 -0.87547,0 -1.83822,-0.64227 -2.13945,-1.42727 z m 9.999996,0 c -0.93247,-2.42998 0.0336,-6.07273 1.61047,-6.07273 1.01149,0 1.60108,1.22127 1.81037,3.75 0.23941,2.89272 -0.0535,3.75 -1.28139,3.75 -0.87546,0 -1.83821,-0.64227 -2.13945,-1.42727 z m 9.97124,-0.075 c -0.8545,-2.22679 0.52627,-6.70115 1.92611,-6.2415 0.66722,0.21909 1.35278,2.05105 1.52349,4.07104 0.23847,2.82203 -0.0583,3.6727 -1.28139,3.6727 -0.87546,0 -1.85116,-0.67601 -2.16821,-1.50224 z m 9,0 c -0.8545,-2.22679 0.52627,-6.70115 1.92611,-6.2415 0.66722,0.21909 1.35278,2.05105 1.52349,4.07104 0.23847,2.82203 -0.0583,3.6727 -1.28139,3.6727 -0.87546,0 -1.85116,-0.67601 -2.16821,-1.50224 z m 10,0 c -0.8545,-2.22679 0.52627,-6.70115 1.92611,-6.2415 0.66722,0.21909 1.35278,2.05105 1.52349,4.07104 0.23847,2.82203 -0.0583,3.6727 -1.28139,3.6727 -0.87546,0 -1.85116,-0.67601 -2.16821,-1.50224 z m 10,0 c -0.8545,-2.22679 0.52627,-6.70115 1.92611,-6.2415 0.66722,0.21909 1.35278,2.05105 1.52349,4.07104 0.23847,2.82203 -0.0583,3.6727 -1.28139,3.6727 -0.87546,0 -1.85116,-0.67601 -2.16821,-1.50224 z m 10.24622,-0.0796 c -0.33385,-0.8699 -0.60699,-2.7074 -0.60699,-4.08325 0,-3.94232 2.45598,-2.20114 2.81037,1.99242 0.31285,3.7022 -1.07843,5.02248 -2.20338,2.09091 z m 8.75378,0.0796 c -0.8545,-2.22679 0.52627,-6.70115 1.92611,-6.2415 0.66722,0.21909 1.35278,2.05105 1.52349,4.07104 0.23847,2.82203 -0.0583,3.6727 -1.28139,3.6727 -0.87546,0 -1.85116,-0.67601 -2.16821,-1.50224 z m 10,0 c -0.8545,-2.22679 0.52627,-6.70115 1.92611,-6.2415 0.66722,0.21909 1.35278,2.05105 1.52349,4.07104 0.23847,2.82203 -0.0583,3.6727 -1.28139,3.6727 -0.87546,0 -1.85116,-0.67601 -2.16821,-1.50224 z m -113.860769,-10.39427 -28,-0.60346 -0.78956,-9 c -0.43427,-4.95 -0.65927,-38.62397 -0.5,-74.831051 0.2716,-61.747858 0.39985,-65.911672 2.06777,-67.13087 1.37917,-1.008136 14.50676,-1.469538 58.500003,-2.056132 58.286236,-0.777172 87.871356,-0.275043 91.280056,1.549235 1.89393,1.013604 1.94152,2.755302 1.93304,70.753997 -0.005,38.343151 -0.28947,72.052081 -0.63265,74.908731 -0.37432,3.11586 -1.19631,5.41355 -2.0545,5.74287 -2.22922,0.85543 -90.602906,1.33913 -121.804159,0.66668 z M 171.02395,161.39106 c 1.91076,-1.91114 1.91057,-123.487486 -1.9e-4,-125.399785 -1.03258,-1.033401 -13.99778,-1.356485 -63.10926,-1.57264 -56.793619,-0.249968 -61.922569,-0.136113 -63.200449,1.402945 -1.14452,1.378451 -1.44447,11.960429 -1.69426,59.772049 -0.16693,31.953381 -0.0311,59.981311 0.30186,62.284301 0.47131,3.2599 1.0922,4.28576 2.80352,4.63207 1.20898,0.24465 29.51343,0.38539 62.898779,0.31275 48.32457,-0.10514 60.96557,-0.39704 62,-1.43169 z M 58.073311,148.48495 c -2.18942,-0.4217 -2.25,-0.76806 -2.25,-12.86382 v -12.43045 h 6 6 l -0.004,4.75 c -0.002,2.99071 -0.74749,5.96988 -2.01183,8.04363 -1.53892,2.5241 -1.76634,3.74536 -0.97335,5.22708 2.32087,4.33658 9.2092,5.06894 10.24978,1.08975 0.73761,-2.8206 -0.32484,-7.19778 -1.89314,-7.79959 -0.98634,-0.37848 -1.36776,-2.58657 -1.36776,-7.91786 v -7.39301 h -6.41821 c -10.07443,0 -9.58179,0.751 -9.58179,-14.60699 V 91.190679 h 4 c 2.73087,0 4,0.43707 4,1.37755 0,0.75766 0.62245,1.89415 1.38322,2.52553 1.65881,1.37669 2.61678,-0.4482 2.61678,-4.984867 0,-2.900038 -0.0374,-2.918213 -6,-2.918213 h -6 V 70.124938 c 0,-9.851503 0.43761,-17.883415 1.03518,-19 0.75624,-1.413046 2.10356,-1.934259 5,-1.934259 h 3.96482 v 14 14 h 2.5 c 2.44268,0 2.5,0.170601 2.5,7.440983 0,4.092541 0.45481,7.722077 1.0107,8.065627 0.55588,0.34356 5.16838,0.84502 10.250003,1.11436 5.08161,0.26933 11.83044,1.1641 14.9974,1.98838 3.166946,0.82427 6.187016,1.23358 6.711266,0.90958 0.52424,-0.324 1.26038,-2.2267 1.63587,-4.22822 0.57142,-3.045927 0.31517,-3.936743 -1.57205,-5.464919 -3.00603,-2.434132 -5.511876,-2.30208 -8.049906,0.424209 -1.82973,1.965463 -3.28365,2.293642 -11.49697,2.595099 l -9.402353,0.345101 -0.29198,-8.345101 c -0.27255,-7.789734 -0.44172,-8.366365 -2.54198,-8.66465 -2.18975,-0.310994 -2.25,-0.639031 -2.25,-12.25 V 49.190679 h 5 5 v 17 17 h 16.551373 16.551376 l -0.30138,23.397161 c -0.27534,21.37648 -0.46621,23.57912 -2.21003,25.50406 -1.59548,1.76119 -1.72056,2.51975 -0.76229,4.62292 1.22098,2.67978 5.25327,4.76524 7.52682,3.8928 1.45931,-0.56 3.64413,-4.64229 3.64413,-6.80901 0,-0.71387 -0.9,-2.11244 -2,-3.10793 -1.89777,-1.71746 -2,-3.07997 -2,-26.65499 V 79.190679 h -16.5 -16.499996 v -15 -15 h 25.499996 25.5 v 8.5 8.5 h 5.92857 c 4.05647,0 6.42483,0.496258 7.50012,1.57155 0.87023,0.870231 2.75977,1.428055 4.23418,1.25 1.52371,-0.18401 2.84702,0.226614 3.09372,0.959982 0.33839,1.005926 -2.22357,1.220986 -11.91275,1 l -12.34384,-0.281532 -0.30226,-5.25 c -0.16624,-2.8875 -0.39124,-5.31427 -0.5,-5.392822 -0.10876,-0.07855 -7.65594,-0.416052 -16.77151,-0.75 -13.921636,-0.510018 -16.853426,-0.887212 -18.321426,-2.357178 -2.30516,-2.308247 -5.13974,-2.215063 -7.6048,0.25 -2.60282,2.602816 -2.53603,5.422706 0.18856,7.961045 2.71226,2.526851 3.54812,2.531305 7.31144,0.03895 2.65168,-1.756136 4.712586,-1.987587 17.749996,-1.993411 l 14.75,-0.0066 v 6.021439 c 0,5.467701 -0.23211,6.127194 -2.52398,7.171439 -3.52016,1.603896 -4.14691,5.0562 -1.57392,8.669632 1.52957,2.148089 2.0979,4.462102 2.0979,8.54186 v 5.59563 h 5 5 v 24.999997 25 h -4 -4 l 0.007,-14.25 c 0.006,-12.53847 0.24522,-14.61032 1.99341,-17.25 1.09275,-1.65 1.98979,-3.75536 1.99341,-4.67857 0.01,-2.51935 -2.7908,-4.82143 -5.86525,-4.82143 -5.04346,0 -6.5614,4.02406 -3.63473,9.63569 1.12022,2.14792 1.49538,6.42835 1.5,17.11431 l 0.006,14.25 h -8.5 -8.5 v -25 -24.999997 h -6.999996 -7 v 9.631967 c 0,8.04045 -0.3471,10.19358 -2.10065,13.03089 -2.54745,4.12185 -1.91411,7.91766 1.58727,9.513 5.42665,2.47254 9.803336,-4.56417 5.98158,-9.61699 -1.01739,-1.3451 -1.4682,-4.49241 -1.4682,-10.25 v -8.30887 h 3 2.999996 v 23 23 h -3.452276 -3.45229 l -0.29772,-6.25 c -0.22657,-4.75657 -0.65614,-6.25 -1.79771,-6.25 -1.17338,0 -1.5,1.36131 -1.5,6.25182 v 6.25183 l -3.25,-0.002 -3.25,-0.002 v -24 -24 h -7.551883 c -5.91134,0 -8.3665,-0.46883 -11.30177,-2.158157 -4.62798,-2.66353 -8.82224,-1.98137 -9.71615,1.580247 -1.35839,5.41225 4.30776,9.29008 9.0419,6.18815 1.62594,-1.06536 4.66895,-1.61024 8.99272,-1.61024 h 6.535183 v 22 22 l -10.750003,-0.13618 c -5.9125,-0.0749 -11.7625,-0.3312 -13,-0.56955 z M 122.36876,74.736134 c 3.74063,-3.740629 3.08643,-6.594318 -1.95078,-8.509462 -2.31431,-0.879897 -3.36436,-0.761696 -5.46589,0.615282 -1.72189,1.128224 -5.9389,1.962947 -12.4743,2.469181 -9.405196,0.72853 -11.629696,1.23766 -10.470856,2.396501 0.28433,0.284327 4.83708,0.800736 10.117216,1.147576 6.83299,0.448842 10.40721,1.16268 12.39971,2.476453 3.68817,2.43182 4.91033,2.339041 7.8449,-0.595531 z m -4.86956,-2.947689 c -0.62512,-1.629042 0.21476,-2.783381 1.46359,-2.011563 1.13593,0.702044 1.11012,3.413797 -0.0325,3.413797 -0.49116,0 -1.13515,-0.631005 -1.4311,-1.402234 z m 22.32411,50.402235 V 95.190679 h -5 c -4.64663,0 -5,-0.17407 -5,-2.46298 0,-1.35464 0.85705,-4.637328 1.90455,-7.294865 1.91732,-4.864273 1.54513,-7.53822 -1.31909,-9.476842 -0.597,-0.404078 4.87704,-0.741578 12.16454,-0.75 10.51874,-0.01216 13.25,0.265302 13.25,1.346015 0,0.906464 -0.82087,1.204408 -2.45673,0.891695 -1.46269,-0.279611 -3.83699,0.383422 -5.86803,1.638672 -1.87622,1.159568 -5.04569,2.108305 -7.04327,2.108305 h -3.63197 v 6.5 6.5 h 6 6 v 27.500001 27.5 h -4.5 -4.5 z m 11.7651,-2.25 -0.2651,-29.250001 -5.25,-0.30226 c -4.82112,-0.277567 -5.25,-0.502219 -5.25,-2.75 0,-1.962387 0.50988,-2.44774 2.57143,-2.44774 1.41428,0 3.28715,0.715726 4.16193,1.590502 1.0245,1.024504 2.77839,1.451822 4.92857,1.2008 l 3.33807,-0.389701 v 30.7992 c 0,30.05441 -0.048,30.7992 -1.9849,30.7992 -1.92857,0 -1.99241,-0.8299 -2.25,-29.25 z m -83.269469,20.24294 c -0.34232,-0.55389 0.10053,-1.28448 0.98412,-1.62354 1.91464,-0.73472 2.98171,0.0749 2.06137,1.56407 -0.83038,1.34358 -2.23491,1.37101 -3.04549,0.0595 z m 45.180259,-4.39517 c -0.56462,-1.47138 0.0818,-2.59777 1.49078,-2.59777 0.45833,0 0.83333,0.9 0.83333,2 0,2.29292 -1.52327,2.68471 -2.32411,0.59777 z m -20.499206,-9.15059 c 0.45226,-2.17211 2.22701,-2.30502 2.63295,-0.19718 0.2108,1.0946 -0.27968,1.75 -1.30963,1.75 -0.96073,0 -1.51197,-0.64684 -1.32332,-1.55282 z M 124.44826,114.4823 c -0.31382,-0.31382 -0.33125,-0.95781 -0.0387,-1.4311 0.70205,-1.13593 3.4138,-1.11012 3.4138,0.0325 0,1.10376 -2.59467,2.17899 -3.37505,1.39861 z M 60.823311,102.69068 c 0,-1.02996 0.6554,-1.52043 1.75,-1.30963 2.10784,0.40593 1.97493,2.18068 -0.19718,2.63295 -0.90598,0.18865 -1.55282,-0.36259 -1.55282,-1.32332 z M 98.073314,90.940679 c 0.22917,-0.6875 1.01667,-1.25 1.75,-1.25 0.733326,0 1.520826,0.5625 1.749996,1.25 0.24786,0.74359 -0.46111,1.25 -1.749996,1.25 -1.28889,0 -1.99786,-0.50641 -1.75,-1.25 z m 51.999996,-8 c 0.22917,-0.6875 1.01667,-1.25 1.75,-1.25 0.73333,0 1.52083,0.5625 1.75,1.25 0.24786,0.74359 -0.46111,1.25 -1.75,1.25 -1.28889,0 -1.99786,-0.50641 -1.75,-1.25 z m -24.25,-1.75 c 0,-0.55 0.64844,-1 1.44098,-1 0.79254,0 1.7191,0.45 2.05902,1 0.33992,0.55 -0.30852,1 -1.44098,1 -1.13246,0 -2.05902,-0.45 -2.05902,-1 z m 24.69385,-16.63948 c -0.93324,-0.933243 0.19452,-2.36052 1.86517,-2.36052 0.79254,0 1.44098,0.675 1.44098,1.5 0,1.50623 -2.11099,2.055676 -3.30615,0.86052 z M 90.299474,62.152105 c -1.00797,-1.630922 1.23102,-3.654248 2.56622,-2.319044 0.72317,0.723175 0.59732,1.411746 -0.41097,2.248558 -1.07422,0.891523 -1.63646,0.90991 -2.15525,0.07049 z m 48.523836,-6.461426 v -6.5 h 8.5 8.5 v 4.937129 4.93713 l -3.26161,-0.529287 c -2.48229,-0.402819 -3.71401,-0.02939 -5.15499,1.562871 -1.20232,1.328552 -3.11425,2.092157 -5.23839,2.092157 h -3.34501 z M 19.517971,168.4907 c -3.03542,-0.78685 -1.26755,-2.78099 2.76442,-3.11824 4.3065,-0.36021 6.96381,1.30746 4.53256,2.84455 -1.54875,0.97915 -4.1929,1.07833 -7.29698,0.27369 z m 170.034309,-0.39189 c -2.66074,-1.54901 -1.10443,-2.90813 3.33005,-2.90813 2.7019,0 3.94098,0.43797 3.94098,1.39301 0,2.45008 -4.17184,3.3194 -7.27103,1.51512 z M 18.945201,158.28717 c -2.2968,-1.45477 -0.24067,-3.09649 3.87811,-3.09649 4.11879,0 6.17492,1.64172 3.87812,3.09649 -0.75797,0.48009 -2.50312,0.87288 -3.87812,0.87288 -1.375,0 -3.12015,-0.39279 -3.87811,-0.87288 z m 170.009229,-0.4385 c -0.61257,-0.7381 -0.81767,-1.6381 -0.45578,-2 1.08899,-1.08898 7.15582,-0.7402 7.89376,0.45381 1.56528,2.53268 -5.41501,3.98372 -7.43798,1.54619 z m -170.009229,-9.5615 c -2.2968,-1.45477 -0.24067,-3.09649 3.87811,-3.09649 4.11879,0 6.17492,1.64172 3.87812,3.09649 -0.75797,0.48009 -2.50312,0.87288 -3.87812,0.87288 -1.375,0 -3.12015,-0.39279 -3.87811,-0.87288 z m 169.930309,-0.53359 c -1.05071,-1.26603 -1.00621,-1.64332 0.2507,-2.12564 2.66336,-1.02203 7.1971,-0.0376 7.1971,1.56274 0,2.10689 -5.80244,2.54543 -7.4478,0.5629 z M 19.561071,138.499 c -2.99173,-0.78039 -0.83238,-2.30832 3.26224,-2.30832 4.10311,0 6.06527,1.37724 3.41247,2.39522 -1.71663,0.65873 -3.92654,0.62996 -6.67471,-0.0869 z m 168.757869,-0.31538 c -0.34231,-0.55389 0.0431,-1.26245 0.85652,-1.57458 2.31064,-0.88667 6.94962,-0.0524 7.40406,1.33164 0.50527,1.53876 -7.31753,1.76882 -8.26058,0.24294 z M 18.945201,129.28717 c -2.2968,-1.45477 -0.24067,-3.09649 3.87811,-3.09649 4.11879,0 6.17492,1.64172 3.87812,3.09649 -0.75797,0.48009 -2.50312,0.87288 -3.87812,0.87288 -1.375,0 -3.12015,-0.39279 -3.87811,-0.87288 z m 170.009229,-0.4385 c -0.61257,-0.7381 -0.81767,-1.6381 -0.45578,-2 1.08899,-1.08898 7.15582,-0.7402 7.89376,0.45381 1.56528,2.53268 -5.41501,3.98372 -7.43798,1.54619 z m -170.009229,-9.5615 c -2.2968,-1.45477 -0.24067,-3.09649 3.87811,-3.09649 4.11879,0 6.17492,1.64172 3.87812,3.09649 -0.75797,0.48009 -2.50312,0.87288 -3.87812,0.87288 -1.375,0 -3.12015,-0.39279 -3.87811,-0.87288 z m 170.009229,-0.4385 c -0.61257,-0.7381 -0.81767,-1.6381 -0.45578,-2 1.08899,-1.08898 7.15582,-0.7402 7.89376,0.45381 1.56528,2.53268 -5.41501,3.98372 -7.43798,1.54619 z m -170.131119,-9.6733 c -1.33333,-0.87528 -1.33333,-1.0941 0,-1.96938 0.825,-0.54157 2.625,-0.98468 4,-0.98468 1.375,0 3.175,0.44311 4,0.98468 1.33333,0.87528 1.33333,1.0941 0,1.96938 -0.825,0.54158 -2.625,0.98468 -4,0.98468 -1.375,0 -3.175,-0.4431 -4,-0.98468 z m 170.131119,-0.3267 c -1.43693,-1.73139 -0.45612,-2.66189 2.78555,-2.64268 3.26761,0.0194 5.54635,1.4265 4.65243,2.87289 -0.95843,1.55077 -6.09175,1.3919 -7.43798,-0.23021 z M -1.5385791,104.94068 c 0.2818,-1.7875 1.04703001,-7.075001 1.70052001,-11.750001 l 1.18815999,-8.5 4.04491,-0.298131 c 6.1003301,-0.449627 9.4283001,1.156725 9.4283001,4.550874 0,1.541237 -0.67983,3.772827 -1.51072,4.959107 -0.95626,1.36525 -1.13977,2.38612 -0.5,2.78152 0.55589,0.34357 1.01072,2.14044 1.01072,3.993071 0,4.88448 -3.69925,7.51356 -10.5719901,7.51356 h -5.30227 z m 9.01194,-0.51531 c 1.12886,-0.72115 1.70298,-2.62444 1.46843,-4.868061 -0.13268,-1.26923 -3.90257,-2.54495 -4.49989,-1.52275 -0.21087,0.36087 -0.69707,2.118621 -1.08045,3.906121 -0.58747,2.73907 -0.40944,3.24759 1.1324,3.23469 1.00621,-0.008 2.34698,-0.34592 2.97951,-0.75 z m 1.14995,-10.434691 c 1.7178101,-1.71781 1.4809801,-5.4782 -0.39024,-6.196256 -2.44094,-0.936677 -3.40976,0.187136 -3.40976,3.955276 0,3.57425 1.55166,4.48932 3.8,2.24098 z M 200.82331,106.23153 c 0,-2.11039 1.82176,-16.097885 2.5776,-19.790851 0.40331,-1.97055 1.07914,-2.25 5.44145,-2.25 8.55007,0 11.61295,5.718594 6.38842,11.9276 -2.54503,3.02459 -2.56446,3.16341 -1.0607,7.576721 l 1.53183,4.49568 h -2.44314 c -2.0506,0 -2.63651,-0.72302 -3.6467,-4.5 -0.66196,-2.475 -1.73414,-4.500001 -2.38262,-4.500001 -0.64848,0 -1.48272,2.025001 -1.85387,4.500001 -0.53294,3.55388 -1.08243,4.5 -2.61354,4.5 -1.25859,0 -1.93873,-0.68731 -1.93873,-1.95915 z M 211.3051,94.566029 c 2.44074,-2.44074 1.57452,-5.87535 -1.48179,-5.87535 -2.16705,0 -2.54133,0.499431 -2.81037,3.75 -0.34517,4.17062 1.38845,5.02906 4.29216,2.12535 z M 18.945201,100.28717 c -2.2968,-1.454771 -0.24067,-3.096491 3.87811,-3.096491 4.11879,0 6.17492,1.64172 3.87812,3.096491 -0.75797,0.48009 -2.50312,0.87288 -3.87812,0.87288 -1.375,0 -3.12015,-0.39279 -3.87811,-0.87288 z M 188.87551,99.753579 c -1.05071,-1.26603 -1.00621,-1.64332 0.2507,-2.12564 2.66336,-1.02203 7.1971,-0.0376 7.1971,1.56274 0,2.106891 -5.80244,2.545431 -7.4478,0.5629 z M 18.945201,90.28717 c -2.2968,-1.454769 -0.24067,-3.096491 3.87811,-3.096491 4.11879,0 6.17492,1.641722 3.87812,3.096491 -0.75797,0.480089 -2.50312,0.872879 -3.87812,0.872879 -1.375,0 -3.12015,-0.39279 -3.87811,-0.872879 z M 188.87551,89.753577 c -1.05071,-1.266024 -1.00621,-1.643317 0.2507,-2.125638 2.66336,-1.022027 7.1971,-0.03759 7.1971,1.56274 0,2.10689 -5.80244,2.54543 -7.4478,0.562898 z M 18.945201,80.28717 c -2.2968,-1.454769 -0.24067,-3.096491 3.87811,-3.096491 4.11879,0 6.17492,1.641722 3.87812,3.096491 -0.75797,0.480086 -2.50312,0.872883 -3.87812,0.872883 -1.375,0 -3.12015,-0.392797 -3.87811,-0.872883 z M 188.87551,79.753577 c -1.05071,-1.266024 -1.00621,-1.643317 0.2507,-2.125638 2.66336,-1.022027 7.1971,-0.03759 7.1971,1.56274 0,2.106888 -5.80244,2.545432 -7.4478,0.562898 z m 2.16216,-8.690913 c -4.00773,-1.155905 -3.30386,-2.871985 1.17799,-2.871985 3.75859,0 4.69197,0.616694 3.93176,2.597766 -0.60532,1.577448 -0.59343,1.576809 -5.10975,0.274219 z M 19.067081,70.526321 c -2.35917,-0.951123 -0.13255,-2.335642 3.75623,-2.335642 4.10311,0 6.06527,1.37724 3.41247,2.395215 -1.82672,0.700978 -5.35496,0.671658 -7.1687,-0.05957 z m -0.12188,-9.239151 c -2.2968,-1.454769 -0.24067,-3.096491 3.87811,-3.096491 4.11879,0 6.17492,1.641722 3.87812,3.096491 -0.75797,0.480086 -2.50312,0.872883 -3.87812,0.872883 -1.375,0 -3.12015,-0.392797 -3.87811,-0.872883 z M 188.83167,61.24284 c -2.32974,-1.513258 0.16008,-3.253027 4.11448,-2.875002 2.19177,0.209523 3.37716,0.849346 3.37716,1.822842 0,1.775893 -5.24363,2.512332 -7.49164,1.05216 z M 18.945201,51.28717 c -2.2968,-1.454769 -0.24067,-3.096491 3.87811,-3.096491 4.11879,0 6.17492,1.641722 3.87812,3.096491 -0.75797,0.480086 -2.50312,0.872883 -3.87812,0.872883 -1.375,0 -3.12015,-0.392797 -3.87811,-0.872883 z M 188.83167,51.24284 c -2.32974,-1.513258 0.16008,-3.253027 4.11448,-2.875002 2.19177,0.209523 3.37716,0.849346 3.37716,1.822842 0,1.775893 -5.24363,2.512332 -7.49164,1.05216 z M 18.852271,41.256044 c -2.19166,-1.42524 -0.56453,-2.381505 4.21783,-2.478819 3.15243,-0.06415 4.25321,0.301671 4.25321,1.413454 0,1.772941 -6.18652,2.550992 -8.47104,1.065365 z m 169.979399,-0.0132 c -2.32974,-1.513258 0.16008,-3.253027 4.11448,-2.875002 2.19177,0.209518 3.37716,0.849341 3.37716,1.822837 0,1.775893 -5.24363,2.512332 -7.49164,1.05216 z M 18.302221,32.15656 c -1.18133,-1.91143 1.04862,-3.11945 5.13931,-2.784102 2.64237,0.216617 3.88178,0.797154 3.88178,1.818221 0,1.851123 -7.94804,2.702114 -9.02109,0.965881 z m 170.529449,0.08628 c -2.32974,-1.513258 0.16008,-3.253027 4.11448,-2.875002 2.19177,0.209522 3.37716,0.849345 3.37716,1.822841 0,1.775893 -5.24363,2.512332 -7.49164,1.052161 z M 48.292671,15.879023 c -0.74641,-3.978698 -0.13902,-6.6883439 1.49926,-6.6883439 1.26794,0 1.34222,6.9604119 0.0953,8.9308139 -0.67012,1.05894 -1.08455,0.476115 -1.59456,-2.24247 z M 155.505,18.539041 c -1.3525,-1.352503 -0.7166,-8.120989 0.81831,-8.7099879 1.16904,-0.448604 1.49662,0.2448669 1.48469,3.1430109 -0.0162,3.934001 -1.16325,6.706726 -2.303,5.566977 z M 38.249261,16.85831 c -1.01257,-2.638714 -0.018,-7.1676309 1.57405,-7.1676309 1.07801,0 1.5,1.1018519 1.5,3.9166669 0,3.966288 -1.9914,6.072297 -3.07405,3.250964 z m 19,0 c -1.01257,-2.638714 -0.018,-7.1676309 1.57405,-7.1676309 1.07801,0 1.5,1.1018519 1.5,3.9166669 0,3.966288 -1.9914,6.072297 -3.07405,3.250964 z m 10.02237,-1.017497 c -0.87306,-3.478578 -0.19308,-6.1501339 1.56537,-6.1501339 1.06209,0 1.48631,1.1178909 1.48631,3.9166669 0,4.462402 -2.10549,6.003373 -3.05168,2.233467 z m 9.99827,-0.0069 c -0.78254,-3.117859 0.33442,-6.8828719 1.88827,-6.3649239 1.54731,0.515771 1.5052,7.9416939 -0.048,8.4594189 -0.66722,0.222405 -1.49535,-0.720117 -1.8403,-2.094495 z m 9.000003,0 c -0.78254,-3.117859 0.33442,-6.8828719 1.88827,-6.3649239 1.54731,0.515771 1.5052,7.9416939 -0.048,8.4594189 -0.66722,0.222405 -1.49535,-0.720117 -1.8403,-2.094495 z m 9.99999,0 c -0.78253,-3.117859 0.33443,-6.8828719 1.88828,-6.3649239 1.54731,0.515771 1.5052,7.9416939 -0.048,8.4594189 -0.66722,0.222405 -1.49535,-0.720117 -1.8403,-2.094495 z m 10.000006,0 c -0.78254,-3.117859 0.33443,-6.8828719 1.88827,-6.3649239 1.54731,0.515771 1.5052,7.9416939 -0.048,8.4594189 -0.66721,0.222405 -1.49535,-0.720117 -1.84029,-2.094495 z m 10,0 c -0.78254,-3.117859 0.33443,-6.8828719 1.88827,-6.3649239 1.54731,0.515771 1.5052,7.9416939 -0.048,8.4594189 -0.66721,0.222405 -1.49535,-0.720117 -1.84029,-2.094495 z m 9,0 c -0.78254,-3.117859 0.33443,-6.8828719 1.88827,-6.3649239 1.54731,0.515771 1.5052,7.9416939 -0.048,8.4594189 -0.66721,0.222405 -1.49535,-0.720117 -1.84029,-2.094495 z m 10,0 c -0.78254,-3.117859 0.33443,-6.8828719 1.88827,-6.3649239 1.54731,0.515771 1.5052,7.9416939 -0.048,8.4594189 -0.66721,0.222405 -1.49535,-0.720117 -1.84029,-2.094495 z m 10,0 c -0.78254,-3.117859 0.33443,-6.8828719 1.88827,-6.3649239 1.54731,0.515771 1.5052,7.9416939 -0.048,8.4594189 -0.66721,0.222405 -1.49535,-0.720117 -1.84029,-2.094495 z m 19,0 c -0.78254,-3.117859 0.33443,-6.8828719 1.88827,-6.3649239 1.54731,0.515771 1.5052,7.9416939 -0.048,8.4594189 -0.66721,0.222405 -1.49535,-0.720117 -1.84029,-2.094495 z m 10,0 c -0.78254,-3.117859 0.33443,-6.8828719 1.88827,-6.3649239 1.54731,0.515771 1.5052,7.9416939 -0.048,8.4594189 -0.66721,0.222405 -1.49535,-0.720117 -1.84029,-2.094495 z"
       id="path1075"
       inkscape:export-filename="/home/randolphvr/Documents/PCB/driver-de-motor-dc/docs/other_docs/logo/logoazul.png"
       inkscape:export-xdpi="96"
       inkscape:export-ydpi="96" />
  </g>
</svg>
