(footprint "TO-220F-15_P2.54x5.08mm_StaggerOdd_Lead5.08mm_VerticalBPD" (version 20221018) (generator pcbnew)
  (layer "F.Cu")
  (descr "TO-220F-15, Vertical, RM 1.27mm, MultiwattF-15, staggered type-1")
  (tags "TO-220F-15 Vertical RM 1.27mm MultiwattF-15 staggered type-1")
  (attr through_hole)
  (fp_text reference "REF**" (at 8.89 -10.7) (layer "F.SilkS")
      (effects (font (size 1 1) (thickness 0.15)))
    (tstamp 87b9f11f-20cd-4a9d-9c78-c6dcff9157b4)
  )
  (fp_text value "TO-220F-15_P2.54x5.08mm_StaggerOdd_Lead5.08mm_VerticalBPD" (at 8.6868 2.0574) (layer "F.Fab")
      (effects (font (size 1 1) (thickness 0.15)))
    (tstamp 53cc665a-8803-475d-bc48-5e972fc71a88)
  )
  (fp_text user "${REFERENCE}" (at 8.89 -10.7) (layer "F.Fab")
      (effects (font (size 1 1) (thickness 0.15)))
    (tstamp 95f99eff-5dbc-4ee8-a7b6-d626fe580eef)
  )
  (fp_line (start -2.61 -18.23) (end -2.61 -9.63)
    (stroke (width 0.1) (type default)) (layer "F.SilkS") (tstamp f8ce78c8-6ba3-490d-92af-d19e9064904e))
  (fp_line (start -2.61 -9.63) (end -2.61 -2.23)
    (stroke (width 0.1) (type default)) (layer "F.SilkS") (tstamp 10d55ed6-c3c4-40a9-8d1d-9d97b685f8c4))
  (fp_line (start -2.61 -2.23) (end -1.61 -2.23)
    (stroke (width 0.1) (type default)) (layer "F.SilkS") (tstamp a35a7f44-e09b-4144-908e-b0c01dffa513))
  (fp_line (start -1.61 -18.23) (end -2.61 -18.23)
    (stroke (width 0.1) (type default)) (layer "F.SilkS") (tstamp 19e8cd9c-a0a9-4dc4-92e3-4b48057be42f))
  (fp_line (start -1.61 -12.53) (end -1.61 -18.23)
    (stroke (width 0.1) (type default)) (layer "F.SilkS") (tstamp 6fcbc4f6-6c83-4f68-8d22-c77b292eaa99))
  (fp_line (start -1.61 -12.53) (end 1.39 -12.53)
    (stroke (width 0.1) (type default)) (layer "F.SilkS") (tstamp 1ddc5c9d-e071-4b58-bb10-895a85cd587b))
  (fp_line (start -1.61 -9.63) (end 19.431 -9.6352)
    (stroke (width 0.1) (type default)) (layer "F.SilkS") (tstamp 692a3b47-14ad-49a4-8a79-cfc5880888f4))
  (fp_line (start -1.61 -5.08) (end -1.61 -9.63)
    (stroke (width 0.1) (type default)) (layer "F.SilkS") (tstamp 03d0f3cb-754c-4a1a-8501-04851ec00126))
  (fp_line (start -1.61 -2.23) (end -1.61 -5.08)
    (stroke (width 0.1) (type default)) (layer "F.SilkS") (tstamp 983cff4e-d830-49d8-bd68-237c7bc1af16))
  (fp_line (start -1.24 -9.7) (end -1.24 -4.959)
    (stroke (width 0.12) (type solid)) (layer "F.SilkS") (tstamp 4cc06b1b-aac0-4223-a048-b75f3707da95))
  (fp_line (start -1.24 -9.7) (end 19.02 -9.7)
    (stroke (width 0.12) (type solid)) (layer "F.SilkS") (tstamp 1a1de270-31c0-4ecf-878e-956a5a76966f))
  (fp_line (start -1.24 -6.16) (end 19.02 -6.16)
    (stroke (width 0.12) (type solid)) (layer "F.SilkS") (tstamp d0be5dd9-1f50-44c6-9f7b-0e0641b32d74))
  (fp_line (start -1.24 -4.959) (end 0.205 -4.959)
    (stroke (width 0.12) (type solid)) (layer "F.SilkS") (tstamp 75f6b119-6990-41ca-9d95-19987cda0d60))
  (fp_line (start 0 -4.959) (end 0 -1.05)
    (stroke (width 0.12) (type solid)) (layer "F.SilkS") (tstamp e250d16a-dba8-44ef-8a10-0c67ee559864))
  (fp_line (start 1.39 -12.53) (end 1.39 -18.23)
    (stroke (width 0.1) (type default)) (layer "F.SilkS") (tstamp 174a3773-82f9-4a63-9437-ecac0e6686d9))
  (fp_line (start 2.336 -4.959) (end 2.745 -4.959)
    (stroke (width 0.12) (type solid)) (layer "F.SilkS") (tstamp d80133d9-b276-4dfa-b7a1-36abfddd696c))
  (fp_line (start 2.39 -18.23) (end 1.39 -18.23)
    (stroke (width 0.1) (type default)) (layer "F.SilkS") (tstamp c82bbcf6-af3f-4925-ab5b-939d3572e474))
  (fp_line (start 2.39 -18.23) (end 2.39 -10.93)
    (stroke (width 0.1) (type default)) (layer "F.SilkS") (tstamp 38237dc5-ab8d-4e2c-aeaa-05be78c0b56a))
  (fp_line (start 2.39 -10.93) (end 5.39 -10.93)
    (stroke (width 0.1) (type default)) (layer "F.SilkS") (tstamp b829c7fd-0eab-418a-9ad8-be8b8353df60))
  (fp_line (start 2.54 -4.959) (end 2.54 -1.065)
    (stroke (width 0.12) (type solid)) (layer "F.SilkS") (tstamp 6579eeaa-c4f5-40a2-81e1-8f2e1fd5ac3d))
  (fp_line (start 4.875 -4.959) (end 5.285 -4.959)
    (stroke (width 0.12) (type solid)) (layer "F.SilkS") (tstamp 01644d44-8e4b-401e-8672-d3cd4b7ae17e))
  (fp_line (start 5.08 -4.959) (end 5.08 -1.065)
    (stroke (width 0.12) (type solid)) (layer "F.SilkS") (tstamp f234f7dc-e208-458b-920f-0e2fdba86a13))
  (fp_line (start 5.39 -18.23) (end 5.39 -10.93)
    (stroke (width 0.1) (type default)) (layer "F.SilkS") (tstamp fa6eae0c-ace7-4e0a-9c0e-2e1c50281abc))
  (fp_line (start 6.39 -18.23) (end 5.39 -18.23)
    (stroke (width 0.1) (type default)) (layer "F.SilkS") (tstamp 98d6acba-9504-4299-9d9c-11d475aa5981))
  (fp_line (start 6.39 -12.53) (end 6.39 -18.23)
    (stroke (width 0.1) (type default)) (layer "F.SilkS") (tstamp 1197bf6f-e21b-42c2-a489-aed7e0b9f513))
  (fp_line (start 6.39 -12.53) (end 11.3902 -12.53)
    (stroke (width 0.1) (type default)) (layer "F.SilkS") (tstamp 06bd59b8-3d0e-4c45-b5f7-9428701df4d6))
  (fp_line (start 7.041 -9.7) (end 7.041 -6.16)
    (stroke (width 0.12) (type solid)) (layer "F.SilkS") (tstamp 63a7fd05-934f-4754-bea8-2831a58a4f28))
  (fp_line (start 7.415 -4.959) (end 7.825 -4.959)
    (stroke (width 0.12) (type solid)) (layer "F.SilkS") (tstamp 15d9ef87-555e-4a04-b3e3-7520bfa4a87e))
  (fp_line (start 7.62 -4.959) (end 7.62 -1.065)
    (stroke (width 0.12) (type solid)) (layer "F.SilkS") (tstamp b7d6b476-81b3-4564-97ad-d99c6400f058))
  (fp_line (start 9.955 -4.959) (end 10.365 -4.959)
    (stroke (width 0.12) (type solid)) (layer "F.SilkS") (tstamp 6c1c4c7d-8b5d-48ed-95af-3c921a17532c))
  (fp_line (start 10.16 -4.959) (end 10.16 -1.065)
    (stroke (width 0.12) (type solid)) (layer "F.SilkS") (tstamp 66897515-4fc6-492f-b700-5e3c4bfc0196))
  (fp_line (start 10.74 -9.7) (end 10.74 -6.16)
    (stroke (width 0.12) (type solid)) (layer "F.SilkS") (tstamp 485d1dac-5e3a-4c9d-a26d-478593081269))
  (fp_line (start 11.3902 -12.53) (end 11.3902 -18.23)
    (stroke (width 0.1) (type default)) (layer "F.SilkS") (tstamp b29328c8-3d5c-4421-8e2a-406bc1daa603))
  (fp_line (start 12.3902 -18.23) (end 11.3902 -18.23)
    (stroke (width 0.1) (type default)) (layer "F.SilkS") (tstamp b1481418-02ea-4f25-bb26-3f1b9082e46a))
  (fp_line (start 12.3902 -18.23) (end 12.3902 -10.93)
    (stroke (width 0.1) (type default)) (layer "F.SilkS") (tstamp cc8f5412-374f-4d32-97c9-abd4f6c24ae1))
  (fp_line (start 12.3902 -10.93) (end 15.3902 -10.93)
    (stroke (width 0.1) (type default)) (layer "F.SilkS") (tstamp 05169fb0-e6d9-4b64-aa87-a26a40310467))
  (fp_line (start 12.495 -4.959) (end 12.905 -4.959)
    (stroke (width 0.12) (type solid)) (layer "F.SilkS") (tstamp fd9b45e7-f297-46f4-a105-794b0726fe43))
  (fp_line (start 12.7 -4.959) (end 12.7 -1.065)
    (stroke (width 0.12) (type solid)) (layer "F.SilkS") (tstamp f5c1b2f1-c8d8-4f93-8da8-e6c5f89e3a89))
  (fp_line (start 15.035 -4.959) (end 15.445 -4.959)
    (stroke (width 0.12) (type solid)) (layer "F.SilkS") (tstamp 56a54f84-1941-46ba-8146-e6de83850a38))
  (fp_line (start 15.24 -4.959) (end 15.24 -1.065)
    (stroke (width 0.12) (type solid)) (layer "F.SilkS") (tstamp acffbb79-b672-4a17-880a-fee929946f31))
  (fp_line (start 15.3902 -18.23) (end 15.3902 -10.93)
    (stroke (width 0.1) (type default)) (layer "F.SilkS") (tstamp 164bc311-3caf-4666-a263-8311fa652031))
  (fp_line (start 16.3902 -18.23) (end 15.3902 -18.23)
    (stroke (width 0.1) (type default)) (layer "F.SilkS") (tstamp 77adf64b-3055-43c0-be04-5fb0c5a66a4e))
  (fp_line (start 16.3902 -12.53) (end 16.3902 -18.23)
    (stroke (width 0.1) (type default)) (layer "F.SilkS") (tstamp 5345c968-f4c9-4dd7-9103-ca055b85cb53))
  (fp_line (start 16.3902 -12.53) (end 19.431 -12.53)
    (stroke (width 0.1) (type default)) (layer "F.SilkS") (tstamp bead9818-e14e-4344-902a-f942f1812390))
  (fp_line (start 17.575 -4.959) (end 19.02 -4.959)
    (stroke (width 0.12) (type solid)) (layer "F.SilkS") (tstamp 9b800e87-1db4-4fa4-9fbb-7a62f9d03b69))
  (fp_line (start 17.78 -4.959) (end 17.78 -1.065)
    (stroke (width 0.12) (type solid)) (layer "F.SilkS") (tstamp c3ca4044-ff9c-4ffd-b33f-9153ccdc98bf))
  (fp_line (start 19.02 -9.7) (end 19.02 -4.959)
    (stroke (width 0.12) (type solid)) (layer "F.SilkS") (tstamp 8a899466-668a-4b3b-b5b6-a44609042d08))
  (fp_line (start 19.431 -18.2352) (end 20.431 -18.2352)
    (stroke (width 0.1) (type default)) (layer "F.SilkS") (tstamp d561c3da-da90-4f0a-bfc1-2c0a1b214f4e))
  (fp_line (start 19.431 -12.53) (end 19.431 -18.2352)
    (stroke (width 0.1) (type default)) (layer "F.SilkS") (tstamp cf416af9-e452-467b-89d4-74d5700fb538))
  (fp_line (start 19.431 -5.0852) (end 19.431 -9.6352)
    (stroke (width 0.1) (type default)) (layer "F.SilkS") (tstamp c8603b0e-b220-4f94-80e6-83dd0c0566cd))
  (fp_line (start 19.431 -2.2352) (end 19.431 -5.0852)
    (stroke (width 0.1) (type default)) (layer "F.SilkS") (tstamp 1ccbd118-5683-42d7-9cf3-bb1982cb46e3))
  (fp_line (start 20.431 -18.2352) (end 20.431 -9.6352)
    (stroke (width 0.1) (type default)) (layer "F.SilkS") (tstamp c9fddca0-e4f2-4c90-bc09-c692345e9b14))
  (fp_line (start 20.431 -9.6352) (end 20.431 -2.2352)
    (stroke (width 0.1) (type default)) (layer "F.SilkS") (tstamp 9e2d6b3f-5e94-402d-9669-63dcd547f679))
  (fp_line (start 20.431 -2.2352) (end 19.431 -2.2352)
    (stroke (width 0.1) (type default)) (layer "F.SilkS") (tstamp a2ca31b0-32b9-4b89-8b35-c0001b69ffd4))
  (fp_line (start -1.37 -9.83) (end -1.37 1.16)
    (stroke (width 0.05) (type solid)) (layer "F.CrtYd") (tstamp e4f48e3a-27c3-4ed3-9fc1-8b67d3398703))
  (fp_line (start -1.37 1.16) (end 19.15 1.16)
    (stroke (width 0.05) (type solid)) (layer "F.CrtYd") (tstamp 433b964e-1fb9-41e9-8f38-c9270d05cea5))
  (fp_line (start 19.15 -9.83) (end -1.37 -9.83)
    (stroke (width 0.05) (type solid)) (layer "F.CrtYd") (tstamp 685352d6-d09f-4c51-825a-5199d10ef5e1))
  (fp_line (start 19.15 1.16) (end 19.15 -9.83)
    (stroke (width 0.05) (type solid)) (layer "F.CrtYd") (tstamp b5d0615e-e533-447f-b10a-59874ec01b74))
  (fp_line (start -1.12 -9.58) (end -1.12 -5.08)
    (stroke (width 0.1) (type solid)) (layer "F.Fab") (tstamp e5bab234-e621-4f4c-a1db-fd4107725414))
  (fp_line (start -1.12 -6.28) (end 18.9 -6.28)
    (stroke (width 0.1) (type solid)) (layer "F.Fab") (tstamp 56736557-2901-4a0b-bf8a-5a3d3ee39099))
  (fp_line (start -1.12 -5.08) (end 18.9 -5.08)
    (stroke (width 0.1) (type solid)) (layer "F.Fab") (tstamp 419e931f-3896-4f3b-9b93-2c91f2584a0f))
  (fp_line (start 0 -5.08) (end 0 0)
    (stroke (width 0.1) (type solid)) (layer "F.Fab") (tstamp 7b5bd99c-91ef-46c4-9af4-aeb5686842a8))
  (fp_line (start 2.54 -5.08) (end 2.54 0)
    (stroke (width 0.1) (type solid)) (layer "F.Fab") (tstamp db27584d-6980-4c35-9830-d775a4c46834))
  (fp_line (start 5.08 -5.08) (end 5.08 0)
    (stroke (width 0.1) (type solid)) (layer "F.Fab") (tstamp 95450f41-01af-47e8-911a-a3045a8b5ec5))
  (fp_line (start 7.04 -9.58) (end 7.04 -6.28)
    (stroke (width 0.1) (type solid)) (layer "F.Fab") (tstamp d447534e-3acd-41ce-b956-e32cc2245651))
  (fp_line (start 7.62 -5.08) (end 7.62 0)
    (stroke (width 0.1) (type solid)) (layer "F.Fab") (tstamp fa23904b-cfeb-44df-bd75-0c90a608322c))
  (fp_line (start 10.16 -5.08) (end 10.16 0)
    (stroke (width 0.1) (type solid)) (layer "F.Fab") (tstamp 00d1e44e-3c49-4958-8c98-b8688855f45f))
  (fp_line (start 10.74 -9.58) (end 10.74 -6.28)
    (stroke (width 0.1) (type solid)) (layer "F.Fab") (tstamp 2abe478c-8e36-41f1-8871-013d220c69fe))
  (fp_line (start 12.7 -5.08) (end 12.7 0)
    (stroke (width 0.1) (type solid)) (layer "F.Fab") (tstamp ec2439ec-1fe7-4afd-916c-46661a99aa46))
  (fp_line (start 15.24 -5.08) (end 15.24 0)
    (stroke (width 0.1) (type solid)) (layer "F.Fab") (tstamp eba64e33-4b2e-4b05-9d59-c63834bcad0d))
  (fp_line (start 17.78 -5.08) (end 17.78 0)
    (stroke (width 0.1) (type solid)) (layer "F.Fab") (tstamp 9684ef81-c520-4d05-ade2-021ed764bfd7))
  (fp_line (start 18.9 -9.58) (end -1.12 -9.58)
    (stroke (width 0.1) (type solid)) (layer "F.Fab") (tstamp 9d3feb8e-e442-4575-9b42-934359e6808f))
  (fp_line (start 18.9 -5.08) (end 18.9 -9.58)
    (stroke (width 0.1) (type solid)) (layer "F.Fab") (tstamp ba9bbdb9-e850-45dc-a5f8-324296b9ca6e))
  (pad "1" thru_hole rect (at 0 0) (size 1.8 1.8) (drill 1) (layers "*.Cu" "*.Mask") (tstamp f312200f-c797-457f-b6ff-b98fd5f6f4e3))
  (pad "2" thru_hole oval (at 1.27 -5.08) (size 1.8 1.8) (drill 1) (layers "*.Cu" "*.Mask") (tstamp caa3fe42-574a-4652-afe4-c72201b97311))
  (pad "3" thru_hole oval (at 2.54 0) (size 1.8 1.8) (drill 1) (layers "*.Cu" "*.Mask") (tstamp 5a0f19b4-1004-4b54-8b02-881853d9fd4a))
  (pad "4" thru_hole oval (at 3.81 -5.08) (size 1.8 1.8) (drill 1) (layers "*.Cu" "*.Mask") (tstamp 53dc5af3-b64e-4937-9619-40bcf228bbe5))
  (pad "5" thru_hole oval (at 5.08 0) (size 1.8 1.8) (drill 1) (layers "*.Cu" "*.Mask") (tstamp 2e62f26f-8fe0-43b2-b7f4-6b08a8c4edbe))
  (pad "6" thru_hole oval (at 6.35 -5.08) (size 1.8 1.8) (drill 1) (layers "*.Cu" "*.Mask") (tstamp f0e16c77-8944-48bc-821a-cb8a4c179463))
  (pad "7" thru_hole oval (at 7.62 0) (size 1.8 1.8) (drill 1) (layers "*.Cu" "*.Mask") (tstamp 39dd0ff7-3ac2-42f3-bc46-bc333b8eb43b))
  (pad "8" thru_hole oval (at 8.89 -5.08) (size 1.8 1.8) (drill 1) (layers "*.Cu" "*.Mask") (tstamp 714c6252-ea5e-4d95-8611-9bdaf32eecca))
  (pad "9" thru_hole oval (at 10.16 0) (size 1.8 1.8) (drill 1) (layers "*.Cu" "*.Mask") (tstamp 253c02fa-8d04-4674-bda6-7d3fc69d20f6))
  (pad "10" thru_hole oval (at 11.43 -5.08) (size 1.8 1.8) (drill 1) (layers "*.Cu" "*.Mask") (tstamp 8fa4fd70-a4a3-44c2-a10d-51b8ea593f28))
  (pad "11" thru_hole oval (at 12.7 0) (size 1.8 1.8) (drill 1) (layers "*.Cu" "*.Mask") (tstamp d1eeba5b-fe7d-4b8b-b06b-b15f29e07649))
  (pad "12" thru_hole oval (at 13.97 -5.08) (size 1.8 1.8) (drill 1) (layers "*.Cu" "*.Mask") (tstamp 85a2713d-1631-4d8e-b4d0-137d1a497b21))
  (pad "13" thru_hole oval (at 15.24 0) (size 1.8 1.8) (drill 1) (layers "*.Cu" "*.Mask") (tstamp 458e4076-1fd2-4793-a575-e10c1862463c))
  (pad "14" thru_hole oval (at 16.51 -5.08) (size 1.8 1.8) (drill 1) (layers "*.Cu" "*.Mask") (tstamp c560c5c5-675d-4c31-b46d-e20097dae117))
  (pad "15" thru_hole oval (at 17.78 0) (size 1.8 1.8) (drill 1) (layers "*.Cu" "*.Mask") (tstamp 4a3020db-9bf7-49a5-b64b-29d301ec7b7e))
  (pad "17" thru_hole circle (at 17.9059 -10.93) (size 2.2 2.2) (drill 1.5) (layers "*.Cu" "*.Mask") (tstamp 9ad89f0c-0906-4c62-8425-162cd0e51d65))
  (pad "18" thru_hole circle (at -0.1137 -10.93) (size 2.2 2.2) (drill 1.5) (layers "*.Cu" "*.Mask") (tstamp 8ba903e0-8bd8-41af-8ed6-315a8280c8d7))
  (model "${KICAD6_3DMODEL_DIR}/Package_TO_SOT_THT.3dshapes/TO-220F-15_P2.54x5.08mm_StaggerOdd_Lead5.08mm_Vertical.wrl"
    (offset (xyz 0 0 0))
    (scale (xyz 1 1 1))
    (rotate (xyz 0 0 0))
  )
)
